<svg width="70" height="45" viewBox="0 0 70 45" fill="none" xmlns="http://www.w3.org/2000/svg">
<path d="M34.8475 22.0723V21.9641L29.308 14.845C29.308 14.845 28.0096 15.0181 26.6031 16.4787C25.6294 17.4849 0.409453 42.3478 0.268801 42.5426C-0.488554 43.6245 0.441911 43.2783 1.96744 42.7265C2.054 42.7265 14.3556 38.7666 14.3556 38.7666C14.4097 38.7017 14.3448 38.7558 14.4205 38.7017C14.3772 38.1499 14.334 35.867 14.3123 35.7047C14.2474 35.1421 14.5504 34.9582 15.0697 34.7418L25.0884 31.0849C25.1533 30.9983 34.6636 22.2454 34.8475 22.0723ZM52.1693 35.0664C53.6083 36.8083 54.4089 36.5054 55.5016 36.0726C55.8479 35.9428 67.9872 30.9226 68.2468 30.7819C69.1124 30.3167 68.0629 28.9751 67.4679 28.2502C67.2406 27.9797 45.2773 1.67783 45.0501 1.38571C44.0007 0.065748 43.503 -0.00998754 40.8955 0.000831822C39.7919 0.000831822 29.3404 0.0549285 28.2909 0.0657478C26.2136 0.0765672 24.7314 0.0332899 26.2136 1.89422C27.0467 2.92206 51.5526 34.3199 52.1693 35.0664ZM68.6904 35.2395C68.4416 35.207 66.0289 34.731 64.5791 34.4605C64.5791 34.4605 52.1368 39.9135 51.8663 40.0433C50.1352 40.8331 48.9559 39.6971 47.8956 38.4637L41.7178 30.4573C41.1335 30.36 35.1829 29.4187 34.6527 29.4511C34.3173 29.4728 33.6141 29.5377 33.0947 29.7649C32.5646 29.9921 17.385 35.4775 16.8441 35.6831C16.2923 35.8995 15.6107 36.0726 15.6431 36.5054C15.6648 36.7758 15.8595 36.7867 16.1408 36.884C16.4329 36.9706 48.6963 44.1979 49.4644 44.3602C51.1523 44.7173 53.6299 45.4963 55.2636 44.5441C55.4908 44.4143 68.658 36.2782 68.8744 36.1267C69.4586 35.6939 69.3396 35.391 68.6904 35.2395Z" fill="white"/>
</svg>
